…
# get the columns with the codes of interest

grep("diag|ecode", names(icd10cm_data150), ignore.case = T)
#> [1] 2 3 4 5 6
# 2 3 4 5 6

# Using matrix_intent(). For more information on the function, try 
# ?matrix_intent 

results_1 <- icd10cm_data150 %>% 
  matrix_intent(inj_col = c(2:6))
  
results_1
#> # A tibble: 150 x 11
#>    uid   diagnosis_1 diagnosis_2 diagnosis_3 ecode1 ecode2 Assault
#>    <chr> <chr>       <chr>       <chr>       <chr>  <chr>    <dbl>
#>  1 051   T82868A     N186        D6859       Y832   <NA>         0
#>  2 171   T43011A     G92         E860        <NA>   <NA>         0
#>  3 228   T391X1A     D72829      E785        Y92009 <NA>         0
#>  4 071   T383X2A     T471X2A     F329        <NA>   <NA>         0
#>  5 026   T43591A     J449        I10         Y92009 <NA>         0
#>  6 172   S72142A     D62         D6832       W010X… Y92018       0
#>  7 129   T8452XA     A419        D693        Y831   <NA>         0
#>  8 197   T43621A     R7881       E876        <NA>   <NA>         0
#>  9 232   T50902A     J9601       G92         Y9259  <NA>         0
#> 10 027   J189        G92         J9600       Y92238 <NA>         0
#> # … with 140 more rows, and 4 more variables: Intentional_Self_Harm <dbl>,
#> #   Legal_Intervention_War <dbl>, Undetermined <dbl>, Unintentional <dbl>
…
results_2 <- icd10cm_data150 %>% 
  matrix_intent(inj_col = c(2:6), "unintent", "undeterm")
  
results_2
#> # A tibble: 150 x 8
#>    uid   diagnosis_1 diagnosis_2 diagnosis_3 ecode1 ecode2 Undetermined
#>    <chr> <chr>       <chr>       <chr>       <chr>  <chr>         <dbl>
#>  1 051   T82868A     N186        D6859       Y832   <NA>              0
#>  2 171   T43011A     G92         E860        <NA>   <NA>              0
#>  3 228   T391X1A     D72829      E785        Y92009 <NA>              0
#>  4 071   T383X2A     T471X2A     F329        <NA>   <NA>              0
#>  5 026   T43591A     J449        I10         Y92009 <NA>              0
#>  6 172   S72142A     D62         D6832       W010X… Y92018            0
#>  7 129   T8452XA     A419        D693        Y831   <NA>              0
#>  8 197   T43621A     R7881       E876        <NA>   <NA>              0
#>  9 232   T50902A     J9601       G92         Y9259  <NA>              0
#> 10 027   J189        G92         J9600       Y92238 <NA>              0
#> # … with 140 more rows, and 1 more variable: Unintentional <dbl>

# Using matrix_mechanism(). For more information on the function, try 
# ?matrix_mechanism 

results_3 <- icd10cm_data150 %>% 
  matrix_mechanism(inj_col = c(2:6))
  
results_3
#> # A tibble: 150 x 37
#>    uid   diagnosis_1 diagnosis_2 diagnosis_3 ecode1 ecode2 Bites_Stings_no…
#>    <chr> <chr>       <chr>       <chr>       <chr>  <chr>             <dbl>
#>  1 051   T82868A     N186        D6859       Y832   <NA>                  0
#>  2 171   T43011A     G92         E860        <NA>   <NA>                  0
#>  3 228   T391X1A     D72829      E785        Y92009 <NA>                  0
#>  4 071   T383X2A     T471X2A     F329        <NA>   <NA>                  0
#>  5 026   T43591A     J449        I10         Y92009 <NA>                  0
#>  6 172   S72142A     D62         D6832       W010X… Y92018                0
#>  7 129   T8452XA     A419        D693        Y831   <NA>                  0
#>  8 197   T43621A     R7881       E876        <NA>   <NA>                  0
#>  9 232   T50902A     J9601       G92         Y9259  <NA>                  0
#> 10 027   J189        G92         J9600       Y92238 <NA>                  0
#> # … with 140 more rows, and 30 more variables: Bites_Stings_venomous <dbl>,
#> #   Cut_Pierce <dbl>, Drowning_Submersion <dbl>, Fall <dbl>, Fire_Flame <dbl>,
#> #   Firearm <dbl>, Hot_Object_Substance <dbl>, Machinery <dbl>,
#> #   Motor_Vehicle_Nontraffic <dbl>, MVT_Motorcyclist <dbl>, MVT_Occupant <dbl>,
#> #   MVT_Other <dbl>, MVT_Pedal_Cyclist <dbl>, MVT_Pedestrian <dbl>,
#> #   MVT_Unspecified <dbl>, Natural_Environmental_Other <dbl>,
#> #   Other_Land_Transport <dbl>, Other_Specified_Child_Adult_Abuse <dbl>,
#> #   Other_Specified_Classifiable <dbl>, Other_Specified_Foreign_Body <dbl>,
#> #   Other_Specified_NEC <dbl>, Other_Transport <dbl>, Overexertion <dbl>,
#> #   Pedal_cyclist_other <dbl>, Pedestrian_other <dbl>, Poisoning_Drug <dbl>,
#> #   Poisoning_Non_drug <dbl>, Struck_by_against <dbl>, Suffocation <dbl>,
#> #   Unspecified <dbl>

results_4 <- icd10cm_data150 %>% 
  matrix_mechanism(inj_col = c(2:6), "firearm", "fall", "pierce")
  
results_4
#> # A tibble: 150 x 9
#>    uid   diagnosis_1 diagnosis_2 diagnosis_3 ecode1 ecode2 Cut_Pierce  Fall
#>    <chr> <chr>       <chr>       <chr>       <chr>  <chr>       <dbl> <dbl>
#>  1 051   T82868A     N186        D6859       Y832   <NA>            0     0
#>  2 171   T43011A     G92         E860        <NA>   <NA>            0     0
#>  3 228   T391X1A     D72829      E785        Y92009 <NA>            0     0
#>  4 071   T383X2A     T471X2A     F329        <NA>   <NA>            0     0
#>  5 026   T43591A     J449        I10         Y92009 <NA>            0     0
#>  6 172   S72142A     D62         D6832       W010X… Y92018          0     1
#>  7 129   T8452XA     A419        D693        Y831   <NA>            0     0
#>  8 197   T43621A     R7881       E876        <NA>   <NA>            0     0
#>  9 232   T50902A     J9601       G92         Y9259  <NA>            0     0
#> 10 027   J189        G92         J9600       Y92238 <NA>            0     0
#> # … with 140 more rows, and 1 more variable: Firearm <dbl>
…
