Provides injury mechanism and intent following the injury matrix • injurymatrix
…
Using matrix_intent()

Without keyword submitted, all the five injury intents are added to the data.

With keywords (the partial name of the intent will suffice) only the matching intents will be added to the dataset.

# ?matrix_intent for more information

# No keyword is used

results_1 <- icd10cm_data150 %>% 
  matrix_intent(inj_col = c(2:6))

results_1
#> # A tibble: 150 x 11
#>    uid   diagnosis_1 diagnosis_2 diagnosis_3 ecode1 ecode2 Assault
#>    <chr> <chr>       <chr>       <chr>       <chr>  <chr>    <dbl>
#>  1 051   T82868A     N186        D6859       Y832   <NA>         0
#>  2 171   T43011A     G92         E860        <NA>   <NA>         0
#>  3 228   T391X1A     D72829      E785        Y92009 <NA>         0
#>  4 071   T383X2A     T471X2A     F329        <NA>   <NA>         0
#>  5 026   T43591A     J449        I10         Y92009 <NA>         0
#>  6 172   S72142A     D62         D6832       W010X… Y92018       0
#>  7 129   T8452XA     A419        D693        Y831   <NA>         0
#>  8 197   T43621A     R7881       E876        <NA>   <NA>         0
#>  9 232   T50902A     J9601       G92         Y9259  <NA>         0
#> 10 027   J189        G92         J9600       Y92238 <NA>         0
#> # … with 140 more rows, and 4 more variables: Intentional_Self_Harm <dbl>,
#> #   Legal_Intervention_War <dbl>, Undetermined <dbl>, Unintentional <dbl>
…
# Keywords used  

results_2 <- icd10cm_data150 %>% 
  matrix_intent(inj_col = c(2:6), "unintent", "undeterm")
  
results_2
#> # A tibble: 150 x 8
#>    uid   diagnosis_1 diagnosis_2 diagnosis_3 ecode1 ecode2 Undetermined
#>    <chr> <chr>       <chr>       <chr>       <chr>  <chr>         <dbl>
#>  1 051   T82868A     N186        D6859       Y832   <NA>              0
#>  2 171   T43011A     G92         E860        <NA>   <NA>              0
#>  3 228   T391X1A     D72829      E785        Y92009 <NA>              0
#>  4 071   T383X2A     T471X2A     F329        <NA>   <NA>              0
#>  5 026   T43591A     J449        I10         Y92009 <NA>              0
#>  6 172   S72142A     D62         D6832       W010X… Y92018            0
#>  7 129   T8452XA     A419        D693        Y831   <NA>              0
#>  8 197   T43621A     R7881       E876        <NA>   <NA>              0
#>  9 232   T50902A     J9601       G92         Y9259  <NA>              0
#> 10 027   J189        G92         J9600       Y92238 <NA>              0
#> # … with 140 more rows, and 1 more variable: Unintentional <dbl>
Using matrix_mechanism()

Without keyword submitted, all the 31 injury mechanisms are added to the data.

With keywords (the partial name of the mechanism will suffice) only the matching mechanisms will be added to the dataset.

# ?matrix_mechanism for more information 

# No keyword 

results_3 <- icd10cm_data150 %>% 
  matrix_mechanism(inj_col = c(2:6))
  
results_3
#> # A tibble: 150 x 37
#>    uid   diagnosis_1 diagnosis_2 diagnosis_3 ecode1 ecode2 Bites_Stings_no…
#>    <chr> <chr>       <chr>       <chr>       <chr>  <chr>             <dbl>
#>  1 051   T82868A     N186        D6859       Y832   <NA>                  0
#>  2 171   T43011A     G92         E860        <NA>   <NA>                  0
#>  3 228   T391X1A     D72829      E785        Y92009 <NA>                  0
#>  4 071   T383X2A     T471X2A     F329        <NA>   <NA>                  0
#>  5 026   T43591A     J449        I10         Y92009 <NA>                  0
#>  6 172   S72142A     D62         D6832       W010X… Y92018                0
#>  7 129   T8452XA     A419        D693        Y831   <NA>                  0
#>  8 197   T43621A     R7881       E876        <NA>   <NA>                  0
#>  9 232   T50902A     J9601       G92         Y9259  <NA>                  0
#> 10 027   J189        G92         J9600       Y92238 <NA>                  0
#> # … with 140 more rows, and 30 more variables: Bites_Stings_venomous <dbl>,
#> #   Cut_Pierce <dbl>, Drowning_Submersion <dbl>, Fall <dbl>, Fire_Flame <dbl>,
#> #   Firearm <dbl>, Hot_Object_Substance <dbl>, Machinery <dbl>,
#> #   Motor_Vehicle_Nontraffic <dbl>, MVT_Motorcyclist <dbl>, MVT_Occupant <dbl>,
#> #   MVT_Other <dbl>, MVT_Pedal_Cyclist <dbl>, MVT_Pedestrian <dbl>,
#> #   MVT_Unspecified <dbl>, Natural_Environmental_Other <dbl>,
#> #   Other_Land_Transport <dbl>, Other_Specified_Child_Adult_Abuse <dbl>,
#> #   Other_Specified_Classifiable <dbl>, Other_Specified_Foreign_Body <dbl>,
#> #   Other_Specified_NEC <dbl>, Other_Transport <dbl>, Overexertion <dbl>,
#> #   Pedal_cyclist_other <dbl>, Pedestrian_other <dbl>, Poisoning_Drug <dbl>,
#> #   Poisoning_Non_drug <dbl>, Struck_by_against <dbl>, Suffocation <dbl>,
#> #   Unspecified <dbl>

# Keyword used

results_4 <- icd10cm_data150 %>% 
  matrix_mechanism(inj_col = c(2:6), "firearm", "fall", "pierce")
  
results_4
#> # A tibble: 150 x 9
#>    uid   diagnosis_1 diagnosis_2 diagnosis_3 ecode1 ecode2 Cut_Pierce  Fall
#>    <chr> <chr>       <chr>       <chr>       <chr>  <chr>       <dbl> <dbl>
#>  1 051   T82868A     N186        D6859       Y832   <NA>            0     0
#>  2 171   T43011A     G92         E860        <NA>   <NA>            0     0
#>  3 228   T391X1A     D72829      E785        Y92009 <NA>            0     0
#>  4 071   T383X2A     T471X2A     F329        <NA>   <NA>            0     0
#>  5 026   T43591A     J449        I10         Y92009 <NA>            0     0
#>  6 172   S72142A     D62         D6832       W010X… Y92018          0     1
#>  7 129   T8452XA     A419        D693        Y831   <NA>            0     0
#>  8 197   T43621A     R7881       E876        <NA>   <NA>            0     0
#>  9 232   T50902A     J9601       G92         Y9259  <NA>            0     0
#> 10 027   J189        G92         J9600       Y92238 <NA>            0     0
#> # … with 140 more rows, and 1 more variable: Firearm <dbl>
…
Using matrix_intent_mechanism()

Without keyword submitted, all the 92 injury intents and mechanisms combined are added to the data.

With keywords (the partial name of the mechanism or intent will suffice) only the matching combination of intent and mechanisms will be added to the dataset.

# ?matrix_mechanism for more information 

# No keyword 

results_5 <- icd10cm_data150 %>% 
  matrix_intent_mechanism(inj_col = c(2:6))
  
results_5
#> # A tibble: 150 x 98
#>    uid   diagnosis_1 diagnosis_2 diagnosis_3 ecode1 ecode2 Assault_Bites_S…
#>    <chr> <chr>       <chr>       <chr>       <chr>  <chr>             <dbl>
#>  1 051   T82868A     N186        D6859       Y832   <NA>                  0
#>  2 171   T43011A     G92         E860        <NA>   <NA>                  0
#>  3 228   T391X1A     D72829      E785        Y92009 <NA>                  0
#>  4 071   T383X2A     T471X2A     F329        <NA>   <NA>                  0
#>  5 026   T43591A     J449        I10         Y92009 <NA>                  0
#>  6 172   S72142A     D62         D6832       W010X… Y92018                0
#>  7 129   T8452XA     A419        D693        Y831   <NA>                  0
#>  8 197   T43621A     R7881       E876        <NA>   <NA>                  0
#>  9 232   T50902A     J9601       G92         Y9259  <NA>                  0
#> 10 027   J189        G92         J9600       Y92238 <NA>                  0
#> # … with 140 more rows, and 91 more variables: Assault_Cut_Pierce <dbl>,
#> #   Assault_Drowning_Submersion <dbl>, Assault_Fall <dbl>,
#> #   Assault_Fire_Flame <dbl>, Assault_Firearm <dbl>,
#> #   Assault_Hot_Object_Substance <dbl>, Assault_MVT_Occupant <dbl>,
#> #   Assault_MVT_Pedestrian <dbl>, Assault_Natural_Environmental_Other <dbl>,
#> #   Assault_Other_Land_Transport <dbl>,
#> #   Assault_Other_Specified_Child_Adult_Abuse <dbl>,
#> #   Assault_Other_Specified_Classifiable <dbl>,
#> #   Assault_Other_Specified_NEC <dbl>, Assault_Other_Transport <dbl>,
…
# Keyword used

results_6 <- icd10cm_data150 %>% 
  matrix_intent_mechanism(inj_col = c(2:6), "Poisoning_Drug")
  
results_6
#> # A tibble: 150 x 10
#>    uid   diagnosis_1 diagnosis_2 diagnosis_3 ecode1 ecode2 Assault_Poisoni…
#>    <chr> <chr>       <chr>       <chr>       <chr>  <chr>             <dbl>
#>  1 051   T82868A     N186        D6859       Y832   <NA>                  0
#>  2 171   T43011A     G92         E860        <NA>   <NA>                  0
#>  3 228   T391X1A     D72829      E785        Y92009 <NA>                  0
#>  4 071   T383X2A     T471X2A     F329        <NA>   <NA>                  0
#>  5 026   T43591A     J449        I10         Y92009 <NA>                  0
#>  6 172   S72142A     D62         D6832       W010X… Y92018                0
#>  7 129   T8452XA     A419        D693        Y831   <NA>                  0
#>  8 197   T43621A     R7881       E876        <NA>   <NA>                  0
#>  9 232   T50902A     J9601       G92         Y9259  <NA>                  0
#> 10 027   J189        G92         J9600       Y92238 <NA>                  0
#> # … with 140 more rows, and 3 more variables:
#> #   Intentional_Self_Harm_Poisoning_Drug <dbl>,
#> #   Undetermined_Poisoning_Drug <dbl>, Unintentional_Poisoning_Drug <dbl>
…
Create A column of first valid external cause

This example illustrates how to create a first valid external cause field.

icd10cm__external_cause_ <- "(^[VWX]\\d....|(?!(Y0[79]))Y[0-3]....|Y07.{1,3}|Y09|(T3[679]9|T414|T427|T4[3579]9)[1-4].|(?!(T3[679]9|T414|T427|T4[3579]9))(T3[6-9]|T4[0-9]|T50)..[1-4]|T1491.{0,1}|(T1[5-9]|T5[1-9]|T6[0-5]|T7[1346])...|T75[0-3]..)(A|$)"

The function icd_first_valid_regex() in combination with the regular expression above, icd10cm__external_cause_ (It is in the CSTE Toolkit) will create the first valid external cause field.

results_7 <- icd10cm_data150 %>% 
  mutate(ex_cause1 = icd_first_valid_regex(., colvec = c(2:6), 
                                           pattern = icd10cm__external_cause_))

results_7
#> # A tibble: 150 x 7
#>    uid   diagnosis_1 diagnosis_2 diagnosis_3 ecode1  ecode2 ex_cause1
#>    <chr> <chr>       <chr>       <chr>       <chr>   <chr>  <chr>    
#>  1 051   T82868A     N186        D6859       Y832    <NA>   <NA>     
#>  2 171   T43011A     G92         E860        <NA>    <NA>   T43011A  
#>  3 228   T391X1A     D72829      E785        Y92009  <NA>   T391X1A  
#>  4 071   T383X2A     T471X2A     F329        <NA>    <NA>   T383X2A  
#>  5 026   T43591A     J449        I10         Y92009  <NA>   T43591A  
#>  6 172   S72142A     D62         D6832       W010XXA Y92018 W010XXA  
#>  7 129   T8452XA     A419        D693        Y831    <NA>   <NA>     
#>  8 197   T43621A     R7881       E876        <NA>    <NA>   T43621A  
#>  9 232   T50902A     J9601       G92         Y9259   <NA>   T50902A  
#> 10 027   J189        G92         J9600       Y92238  <NA>   <NA>     
#> # … with 140 more rows

Adding selected intents to results_7 by using the new ex_cause1 only:

results_7 %>% 
  matrix_intent(inj_col = "ex_cause1", 
                "unintent", "undeterm")
#> # A tibble: 150 x 9
#>    uid   diagnosis_1 diagnosis_2 diagnosis_3 ecode1 ecode2 ex_cause1
#>    <chr> <chr>       <chr>       <chr>       <chr>  <chr>  <chr>    
#>  1 051   T82868A     N186        D6859       Y832   <NA>   <NA>     
#>  2 171   T43011A     G92         E860        <NA>   <NA>   T43011A  
#>  3 228   T391X1A     D72829      E785        Y92009 <NA>   T391X1A  
#>  4 071   T383X2A     T471X2A     F329        <NA>   <NA>   T383X2A  
#>  5 026   T43591A     J449        I10         Y92009 <NA>   T43591A  
#>  6 172   S72142A     D62         D6832       W010X… Y92018 W010XXA  
#>  7 129   T8452XA     A419        D693        Y831   <NA>   <NA>     
#>  8 197   T43621A     R7881       E876        <NA>   <NA>   T43621A  
#>  9 232   T50902A     J9601       G92         Y9259  <NA>   T50902A  
#> 10 027   J189        G92         J9600       Y92238 <NA>   <NA>     
#> # … with 140 more rows, and 2 more variables: Undetermined <dbl>,
#> #   Unintentional <dbl>

Filter A Dataset With Valid External Cause Of Injury ICD 10 CM

Using the function matrix_valid_external() providing the columns with the icd-10-cm of interest.

# create a new binary variable "valid_external"  

results_8 <- icd10cm_data150 %>% 
   matrix_valid_external(c(2:6))

results_8
#> # A tibble: 150 x 7
#>    uid   diagnosis_1 diagnosis_2 diagnosis_3 ecode1  ecode2 valid_external
#>    <chr> <chr>       <chr>       <chr>       <chr>   <chr>           <dbl>
#>  1 051   T82868A     N186        D6859       Y832    <NA>                0
#>  2 171   T43011A     G92         E860        <NA>    <NA>                1
#>  3 228   T391X1A     D72829      E785        Y92009  <NA>                1
#>  4 071   T383X2A     T471X2A     F329        <NA>    <NA>                1
#>  5 026   T43591A     J449        I10         Y92009  <NA>                1
#>  6 172   S72142A     D62         D6832       W010XXA Y92018              1
#>  7 129   T8452XA     A419        D693        Y831    <NA>                0
#>  8 197   T43621A     R7881       E876        <NA>    <NA>                1
#>  9 232   T50902A     J9601       G92         Y9259   <NA>                1
#> 10 027   J189        G92         J9600       Y92238  <NA>                0
#> # … with 140 more rows

# count the number of records with valid external cause of injury
results_8 %>% 
  count(valid_external)
#> # A tibble: 2 x 2
#>   valid_external     n
#>            <dbl> <int>
#> 1              0    14
#> 2              1   136

# Subset the dataset to the 136 records with valid external causes of injury.

results_8 %>% 
  filter(valid_external == 1)
#> # A tibble: 136 x 7
#>    uid   diagnosis_1 diagnosis_2 diagnosis_3 ecode1  ecode2  valid_external
#>    <chr> <chr>       <chr>       <chr>       <chr>   <chr>            <dbl>
#>  1 171   T43011A     G92         E860        <NA>    <NA>                 1
#>  2 228   T391X1A     D72829      E785        Y92009  <NA>                 1
#>  3 071   T383X2A     T471X2A     F329        <NA>    <NA>                 1
#>  4 026   T43591A     J449        I10         Y92009  <NA>                 1
#>  5 172   S72142A     D62         D6832       W010XXA Y92018               1
#>  6 197   T43621A     R7881       E876        <NA>    <NA>                 1
#>  7 232   T50902A     J9601       G92         Y9259   <NA>                 1
#>  8 066   T43012A     J9692       J690        Y92019  W1839XA              1
#>  9 118   S32810A     S06340A     I2699       V0319XA <NA>                 1
#> 10 076   T43622A     J9600       T40992A     <NA>    <NA>                 1
#> # … with 126 more rows
…
